Calculate Expression Quantitative Trait Loci — calculate_eqtl • gtexr
…
# returns a tibble with a single row
result
#> # A tibble: 1 × 15
#>   data               error gencodeId  geneSymbol genotypes hetCount homoAltCount
#>   <list>             <dbl> <chr>      <chr>      <list>       <int>        <int>
#> 1 <tibble [670 × 1]> 0.148 ENSG00000… LOR        <tibble>        38            0
#> # ℹ 8 more variables: homoRefCount <int>, maf <dbl>, nes <dbl>, pValue <dbl>,
#> #   pValueThreshold <dbl>, tStatistic <dbl>, tissueSiteDetailId <chr>,
#> #   variantId <chr>

# unnest list columns with tidyr::unnest()
tidyr::unnest(result, c("data", "genotypes"))
#> # A tibble: 670 × 15
#>       data error gencodeId         geneSymbol genotypes hetCount homoAltCount
#>      <dbl> <dbl> <chr>             <chr>          <int>    <int>        <int>
#>  1 -0.991  0.148 ENSG00000203782.5 LOR                0       38            0
#>  2  1.14   0.148 ENSG00000203782.5 LOR                0       38            0
#>  3 -0.167  0.148 ENSG00000203782.5 LOR                0       38            0
#>  4 -0.692  0.148 ENSG00000203782.5 LOR                0       38            0
#>  5  0.539  0.148 ENSG00000203782.5 LOR                0       38            0
#>  6  0.442  0.148 ENSG00000203782.5 LOR                0       38            0
#>  7 -0.0767 0.148 ENSG00000203782.5 LOR                0       38            0
#>  8 -0.843  0.148 ENSG00000203782.5 LOR                0       38            0
#>  9  0.632  0.148 ENSG00000203782.5 LOR                0       38            0
#> 10 -0.433  0.148 ENSG00000203782.5 LOR                0       38            0
#> # ℹ 660 more rows
#> # ℹ 8 more variables: homoRefCount <int>, maf <dbl>, nes <dbl>, pValue <dbl>,
#> #   pValueThreshold <dbl>, tStatistic <dbl>, tissueSiteDetailId <chr>,
#> #   variantId <chr>
…
