Calculate Expression Quantitative Trait Loci — calculate_expression_quantitative_trait_loci • gtexr
…
# unnest list columns with tidyr::unnest()
calculate_expression_quantitative_trait_loci(tissueSiteDetailId = "Whole_Blood",
                                             gencodeId = "ENSG00000203782.5",
                                             variantId = "rs79641866") |>
  tidyr::unnest(c("data", "genotypes"))
#> # A tibble: 670 × 15
#>        data error gencodeId         geneSymbol genotypes hetCount homoAltCount
#>       <dbl> <dbl> <chr>             <chr>          <int>    <int>        <int>
#>  1 -0.118   0.148 ENSG00000203782.5 LOR                0       38            0
#>  2 -0.321   0.148 ENSG00000203782.5 LOR                0       38            0
#>  3  0.266   0.148 ENSG00000203782.5 LOR                0       38            0
#>  4  0.0617  0.148 ENSG00000203782.5 LOR                0       38            0
#>  5 -0.00934 0.148 ENSG00000203782.5 LOR                0       38            0
#>  6  0.678   0.148 ENSG00000203782.5 LOR                0       38            0
#>  7 -0.305   0.148 ENSG00000203782.5 LOR                0       38            0
#>  8 -0.500   0.148 ENSG00000203782.5 LOR                0       38            0
#>  9 -0.0467  0.148 ENSG00000203782.5 LOR                0       38            0
#> 10 -0.205   0.148 ENSG00000203782.5 LOR                0       38            0
#> # ℹ 660 more rows
#> # ℹ 8 more variables: homoRefCount <int>, maf <dbl>, nes <dbl>, pValue <dbl>,
#> #   pValueThreshold <dbl>, tStatistic <dbl>, tissueSiteDetailId <chr>,
#> #   variantId <chr>
…
