Get Sample (Biobank Data) — get_sample_biobank_data • gtexr
…
    Examples

# \dontrun{
 get_sample_biobank_data(tissueSiteDetailIds = "Whole_Blood")
#> Warning: ! Total number of items (1329) exceeds maximum page size (250).
#> ℹ Try increasing `itemsPerPage`.
#> 
#> ── Paging info ─────────────────────────────────────────────────────────────────
#> • numberOfPages = 6
#> • page = 0
#> • maxItemsPerPage = 250
#> • totalNumberOfItems (recordsFiltered) = 1329
#> • recordsTotal = 72513
#> # A tibble: 250 × 26
#>    materialType    sampleId       sampleIdUpper sex   hasGTExImage concentration
#>    <chr>           <chr>          <chr>         <chr> <lgl>                <dbl>
#>  1 DNA:DNA Genomic GTEX-1117F-00… GTEX-1117F-0… fema… FALSE               190.  
#>  2 RNA:Total RNA   GTEX-1117F-00… GTEX-1117F-0… fema… FALSE               154   
#>  3 RNA:Total RNA   GTEX-1117F-00… GTEX-1117F-0… fema… FALSE                41.2 
#>  4 DNA:DNA Genomic GTEX-111CU-00… GTEX-111CU-0… male  FALSE                85.9 
#>  5 RNA:Total RNA   GTEX-111CU-00… GTEX-111CU-0… male  FALSE                96.0 
#>  6 RNA:Total RNA   GTEX-111CU-00… GTEX-111CU-0… male  FALSE                95.3 
#>  7 DNA:DNA Genomic GTEX-111FC-00… GTEX-111FC-0… male  FALSE               142.  
#>  8 DNA:DNA Genomic GTEX-111FC-00… GTEX-111FC-0… male  FALSE                 4.35
#>  9 RNA:Total RNA   GTEX-111FC-00… GTEX-111FC-0… male  FALSE               128.  
#> 10 RNA:Total RNA   GTEX-111FC-00… GTEX-111FC-0… male  FALSE               128.  
#> # ℹ 240 more rows
#> # ℹ 20 more variables: analysisRelease <chr>, genotype <chr>, hardyScale <chr>,
#> #   pathologyNotes <chr>, subjectId <chr>, tissueSiteDetailId <chr>,
#> #   hasGenotype <lgl>, originalMaterialType <chr>, aliquotId <chr>,
#> #   tissueSampleId <chr>, ageBracket <chr>, brainTissueDonor <lgl>,
#> #   volume <dbl>, hasExpressionData <lgl>, hasBRDImage <lgl>,
#> #   tissueSiteDetail <chr>, amount <dbl>, mass <dbl>, tissueSite <chr>, …
…
