Get Clustered Median Transcript Expression — get_clustered_median_transcript_expression • gtexr
…
    Examples

# \dontrun{
get_clustered_median_transcript_expression(gencodeIds = c("ENSG00000203782.5",
                                                    "ENSG00000132693.12"))
#> ℹ Retrieve clustering data with `attr(<df>, 'clusters')`
#> # A tibble: 432 × 8
#>    median transcriptId      tissueSiteDetailId    ontologyId datasetId gencodeId
#>     <dbl> <chr>             <chr>                 <chr>      <chr>     <chr>    
#>  1 0.130  ENST00000255030.9 Adipose_Subcutaneous  UBERON:00… gtex_v8   ENSG0000…
#>  2 0      ENST00000368110.1 Adipose_Subcutaneous  UBERON:00… gtex_v8   ENSG0000…
#>  3 0      ENST00000368111.5 Adipose_Subcutaneous  UBERON:00… gtex_v8   ENSG0000…
#>  4 0      ENST00000368112.5 Adipose_Subcutaneous  UBERON:00… gtex_v8   ENSG0000…
#>  5 0      ENST00000437342.1 Adipose_Subcutaneous  UBERON:00… gtex_v8   ENSG0000…
#>  6 0.0100 ENST00000473196.1 Adipose_Subcutaneous  UBERON:00… gtex_v8   ENSG0000…
#>  7 0      ENST00000489317.1 Adipose_Subcutaneous  UBERON:00… gtex_v8   ENSG0000…
#>  8 0.0900 ENST00000255030.9 Adipose_Visceral_Ome… UBERON:00… gtex_v8   ENSG0000…
#>  9 0      ENST00000368110.1 Adipose_Visceral_Ome… UBERON:00… gtex_v8   ENSG0000…
#> 10 0      ENST00000368111.5 Adipose_Visceral_Ome… UBERON:00… gtex_v8   ENSG0000…
#> # ℹ 422 more rows
#> # ℹ 2 more variables: geneSymbol <chr>, unit <chr>
…
