Get Significant Single Tissue Sqtls — get_significant_single_tissue_sqtls • gtexr
…
    Examples

# \dontrun{
# search by gene
get_significant_single_tissue_sqtls(gencodeIds = c("ENSG00000065613.9",
                                                   "ENSG00000203782.5"))
#> 
#> ── Paging info ─────────────────────────────────────────────────────────────────
#> • numberOfPages = 1
#> • page = 0
#> • maxItemsPerPage = 250
#> • totalNumberOfItems = 176
#> # A tibble: 176 × 14
#>    snpId            pos snpIdUpper variantId  geneSymbol  pValue geneSymbolUpper
#>    <chr>          <int> <chr>      <chr>      <chr>        <dbl> <chr>          
#>  1 rs4636462  152442732 RS4636462  chr1_1524… LOR        7.71e-5 LOR            
#>  2 rs4845768  152442997 RS4845768  chr1_1524… LOR        6.57e-5 LOR            
#>  3 rs12069640 152444300 RS12069640 chr1_1524… LOR        7.13e-5 LOR            
#>  4 rs11803629 152445670 RS11803629 chr1_1524… LOR        1.81e-4 LOR            
#>  5 rs12125681 152445737 RS12125681 chr1_1524… LOR        1.81e-4 LOR            
#>  6 rs11205004 152446586 RS11205004 chr1_1524… LOR        1.81e-4 LOR            
#>  7 rs11579085 152447965 RS11579085 chr1_1524… LOR        1.81e-4 LOR            
#>  8 rs1885529  152448570 RS1885529  chr1_1524… LOR        1.81e-4 LOR            
#>  9 rs1885528  152448978 RS1885528  chr1_1524… LOR        1.81e-4 LOR            
#> 10 rs1885527  152449069 RS1885527  chr1_1524… LOR        1.81e-4 LOR            
#> # ℹ 166 more rows
#> # ℹ 7 more variables: datasetId <chr>, tissueSiteDetailId <chr>,
#> #   ontologyId <chr>, chromosome <chr>, gencodeId <chr>, nes <dbl>,
#> #   phenotypeId <chr>
…
