Get Image — get_image • gtexr
…
A tibble.

    Examples

get_image()
#> Warning: ! Total number of items (25713) exceeds maximum page size (250).
#> ℹ Try increasing `itemsPerPage`.
#> 
#> ── Paging info ─────────────────────────────────────────────────────────────────
#> • numberOfPages = 103
#> • page = 0
#> • maxItemsPerPage = 250
#> • totalNumberOfItems = 25713
#> # A tibble: 277 × 11
#>    ageBracket hardyScale hide  histologyImageId pathologyNotes   sex   subjectId
#>    <chr>      <chr>      <lgl> <chr>            <chr>            <chr> <chr>    
#>  1 60-69      Slow death FALSE GTEX-1117F-0126  6 pieces, minim… fema… GTEX-111…
#>  2 60-69      Slow death FALSE GTEX-1117F-0226  2 pieces, ~15% … fema… GTEX-111…
#>  3 60-69      Slow death FALSE GTEX-1117F-0326  2 pieces, clean… fema… GTEX-111…
#>  4 60-69      Slow death FALSE GTEX-1117F-0426  2 pieces, !5% f… fema… GTEX-111…
#>  5 60-69      Slow death FALSE GTEX-1117F-0526  2 pieces, clean… fema… GTEX-111…
#>  6 60-69      Slow death FALSE GTEX-1117F-0526  2 pieces, clean… fema… GTEX-111…
#>  7 60-69      Slow death FALSE GTEX-1117F-0626  2 pieces, up to… fema… GTEX-111…
#>  8 60-69      Slow death FALSE GTEX-1117F-0726  2 pieces, no ab… fema… GTEX-111…
#>  9 60-69      Slow death FALSE GTEX-1117F-0826  2 pieces, exten… fema… GTEX-111…
#> 10 60-69      Slow death FALSE GTEX-1117F-0926  6 pieces, adher… fema… GTEX-111…
#> # ℹ 267 more rows
#> # ℹ 4 more variables: tissueSiteDetail <chr>, sampleId <chr>,
#> #   tissueSampleId <chr>, pathologyNotesCategories <named list>
…
