Get Clustered Median Junction Expression — get_clustered_median_junction_expression • gtexr
…
    Examples

# \dontrun{
get_clustered_median_junction_expression(gencodeIds = c("ENSG00000203782.5",
                                                    "ENSG00000132693.12"))
#> ℹ Retrieve clustering data with `attr(<df>, 'clusters')`
#> # A tibble: 432 × 8
#>    median junctionId           tissueSiteDetailId ontologyId datasetId gencodeId
#>     <dbl> <chr>                <chr>              <chr>      <chr>     <chr>    
#>  1      0 chr1_159712581_1597… Adipose_Subcutane… UBERON:00… gtex_v8   ENSG0000…
#>  2      0 chr1_159712795_1597… Adipose_Subcutane… UBERON:00… gtex_v8   ENSG0000…
#>  3      0 chr1_159712795_1597… Adipose_Subcutane… UBERON:00… gtex_v8   ENSG0000…
#>  4      0 chr1_159713604_1597… Adipose_Subcutane… UBERON:00… gtex_v8   ENSG0000…
#>  5      0 chr1_159713641_1597… Adipose_Subcutane… UBERON:00… gtex_v8   ENSG0000…
#>  6      0 chr1_159713973_1597… Adipose_Subcutane… UBERON:00… gtex_v8   ENSG0000…
#>  7      0 chr1_159714139_1597… Adipose_Subcutane… UBERON:00… gtex_v8   ENSG0000…
#>  8      0 chr1_159712581_1597… Adipose_Visceral_… UBERON:00… gtex_v8   ENSG0000…
#>  9      0 chr1_159712795_1597… Adipose_Visceral_… UBERON:00… gtex_v8   ENSG0000…
#> 10      0 chr1_159712795_1597… Adipose_Visceral_… UBERON:00… gtex_v8   ENSG0000…
#> # ℹ 422 more rows
#> # ℹ 2 more variables: geneSymbol <chr>, unit <chr>
…
