Get Clustered Median Exon Expression — get_clustered_median_exon_expression • gtexr
…
    Examples

# \dontrun{
get_clustered_median_exon_expression(c("ENSG00000203782.5",
                                       "ENSG00000132693.12"))
#> ℹ Retrieve clustering data with `attrbutes(<df>)$clusters`
#> # A tibble: 216 × 8
#>     median exonId   tissueSiteDetailId ontologyId datasetId gencodeId geneSymbol
#>      <dbl> <chr>    <chr>              <chr>      <chr>     <chr>     <chr>     
#>  1  0.789  ENSG000… Adipose_Subcutane… UBERON:00… gtex_v8   ENSG0000… CRP       
#>  2 16.8    ENSG000… Adipose_Subcutane… UBERON:00… gtex_v8   ENSG0000… CRP       
#>  3  0.0921 ENSG000… Adipose_Visceral_… UBERON:00… gtex_v8   ENSG0000… CRP       
#>  4 12      ENSG000… Adipose_Visceral_… UBERON:00… gtex_v8   ENSG0000… CRP       
#>  5  1      ENSG000… Adrenal_Gland      UBERON:00… gtex_v8   ENSG0000… CRP       
#>  6 22.7    ENSG000… Adrenal_Gland      UBERON:00… gtex_v8   ENSG0000… CRP       
#>  7  0      ENSG000… Artery_Aorta       UBERON:00… gtex_v8   ENSG0000… CRP       
#>  8  8      ENSG000… Artery_Aorta       UBERON:00… gtex_v8   ENSG0000… CRP       
#>  9  0      ENSG000… Artery_Coronary    UBERON:00… gtex_v8   ENSG0000… CRP       
#> 10 14      ENSG000… Artery_Coronary    UBERON:00… gtex_v8   ENSG0000… CRP       
#> # ℹ 206 more rows
#> # ℹ 1 more variable: unit <chr>
…
