Get Clustered Median Gene Expression — get_clustered_median_gene_expression • gtexr
…
    Examples

# \dontrun{
get_clustered_median_gene_expression(gencodeIds = c("ENSG00000203782.5",
                                                    "ENSG00000132693.12"))
#> ℹ Retrieve clustering data with `attr(<df>, 'clusters')`
#> # A tibble: 108 × 7
#>    median tissueSiteDetailId     ontologyId datasetId gencodeId geneSymbol unit 
#>     <dbl> <chr>                  <chr>      <chr>     <chr>     <chr>      <chr>
#>  1 0.347  Adipose_Subcutaneous   UBERON:00… gtex_v8   ENSG0000… CRP        TPM  
#>  2 0.240  Adipose_Visceral_Omen… UBERON:00… gtex_v8   ENSG0000… CRP        TPM  
#>  3 0.384  Adrenal_Gland          UBERON:00… gtex_v8   ENSG0000… CRP        TPM  
#>  4 0.198  Artery_Aorta           UBERON:00… gtex_v8   ENSG0000… CRP        TPM  
#>  5 0.332  Artery_Coronary        UBERON:00… gtex_v8   ENSG0000… CRP        TPM  
#>  6 0.117  Artery_Tibial          UBERON:00… gtex_v8   ENSG0000… CRP        TPM  
#>  7 0.631  Bladder                UBERON:00… gtex_v8   ENSG0000… CRP        TPM  
#>  8 0.0347 Brain_Amygdala         UBERON:00… gtex_v8   ENSG0000… CRP        TPM  
#>  9 0.0433 Brain_Anterior_cingul… UBERON:00… gtex_v8   ENSG0000… CRP        TPM  
#> 10 0.0226 Brain_Caudate_basal_g… UBERON:00… gtex_v8   ENSG0000… CRP        TPM  
#> # ℹ 98 more rows
…
