Get Sample (Datasets Endpoints) — get_sample_datasets_endpoints • gtexr
…
    Examples

# \dontrun{
 get_sample_datasets_endpoints()
#> Warning: ! Total number of items (22734) exceeds maximum page size (250).
#> ℹ Try increasing `itemsPerPage`.
#> 
#> ── Paging info ─────────────────────────────────────────────────────────────────
#> • numberOfPages = 91
#> • page = 0
#> • maxItemsPerPage = 250
#> • totalNumberOfItems = 22734
#> # A tibble: 10,946 × 20
#>    ischemicTime aliquotId tissueSampleId       tissueSiteDetail         dataType
#>           <int> <chr>     <chr>                <chr>                    <chr>   
#>  1         1188 SM-58Q7G  GTEX-1117F-0003      Whole Blood              WES     
#>  2         1188 SM-5DWSB  GTEX-1117F-0003      Whole Blood              OMNI    
#>  3         1188 SM-6WBT7  GTEX-1117F-0003      Whole Blood              WGS     
#>  4         1193 SM-AHZ7F  GTEX-1117F-0011-R10a Brain - Frontal Cortex … NA      
#>  5         1193 SM-CYKQ8  GTEX-1117F-0011-R10b Brain - Frontal Cortex … NA      
#>  6         1214 SM-5GZZ7  GTEX-1117F-0226      Adipose - Subcutaneous   RNASEQ  
#>  7         1214 SM-5GZZ7  GTEX-1117F-0226      Adipose - Subcutaneous   RNASEQ  
#>  8         1214 SM-5GZZ7  GTEX-1117F-0226      Adipose - Subcutaneous   RNASEQ  
#>  9         1214 SM-5GZZ7  GTEX-1117F-0226      Adipose - Subcutaneous   RNASEQ  
#> 10         1214 SM-5GZZ7  GTEX-1117F-0226      Adipose - Subcutaneous   RNASEQ  
#> # ℹ 10,936 more rows
#> # ℹ 15 more variables: ischemicTimeGroup <chr>, freezeType <chr>,
#> #   sampleId <chr>, sampleIdUpper <chr>, ageBracket <chr>, hardyScale <chr>,
#> #   tissueSiteDetailId <chr>, subjectId <chr>, uberonId <chr>, sex <chr>,
#> #   datasetId <chr>, rin <chr>, pathologyNotesCategories <named list>,
#> #   pathologyNotes <chr>, autolysisScore <chr>
…
