Get Tissue Site Detail — get_tissue_site_detail • gtexr
…
    Examples

get_tissue_site_detail()
#> 
#> ── Paging info ─────────────────────────────────────────────────────────────────
#> • numberOfPages = 1
#> • page = 0
#> • maxItemsPerPage = 250
#> • totalNumberOfItems = 54
#> # A tibble: 162 × 18
#>    tissueSiteDetailId  colorHex colorRgb datasetId eGeneCount expressedGeneCount
#>    <chr>               <chr>    <chr>    <chr>          <int>              <int>
#>  1 Adipose_Subcutaneo… FF6600   255,102… gtex_v8        15607              28830
#>  2 Adipose_Subcutaneo… FF6600   255,102… gtex_v8        15607              28830
#>  3 Adipose_Subcutaneo… FF6600   255,102… gtex_v8        15607              28830
#>  4 Adipose_Visceral_O… FFAA00   255,170… gtex_v8        12482              28881
#>  5 Adipose_Visceral_O… FFAA00   255,170… gtex_v8        12482              28881
#>  6 Adipose_Visceral_O… FFAA00   255,170… gtex_v8        12482              28881
#>  7 Adrenal_Gland       33DD33   51,221,… gtex_v8         8123              28235
#>  8 Adrenal_Gland       33DD33   51,221,… gtex_v8         8123              28235
#>  9 Adrenal_Gland       33DD33   51,221,… gtex_v8         8123              28235
#> 10 Artery_Aorta        FF5555   255,85,… gtex_v8        12493              28025
#> # ℹ 152 more rows
#> # ℹ 12 more variables: hasEGenes <lgl>, hasSGenes <lgl>, mappedInHubmap <lgl>,
#> #   eqtlSampleSummary <named list>, rnaSeqSampleSummary <named list>,
#> #   sGeneCount <int>, samplingSite <chr>, tissueSite <chr>,
#> #   tissueSiteDetail <chr>, tissueSiteDetailAbbr <chr>, ontologyId <chr>,
#> #   ontologyIri <chr>
…
