Get Significant Single Tissue eQTLs By Location — get_significant_single_tissue_eqtls_by_location • gtexr
…
    Examples

# \dontrun{
get_significant_single_tissue_eqtls_by_location(
  tissueSiteDetailId = "Artery_Aorta",
  start = 10000,
  end = 250000,
  chromosome = "chr11")
#> # A tibble: 434 × 11
#>    chromosome datasetId gencodeId      geneSymbol geneSymbolUpper   nes   pValue
#>    <chr>      <chr>     <chr>          <chr>      <chr>           <dbl>    <dbl>
#>  1 chr11      gtex_v8   ENSG000001779… BET1L      BET1L           0.381 1.11e- 6
#>  2 chr11      gtex_v8   ENSG000001779… BET1L      BET1L           0.364 2.25e- 6
#>  3 chr11      gtex_v8   ENSG000001779… BET1L      BET1L           0.417 3.10e- 8
#>  4 chr11      gtex_v8   ENSG000001779… BET1L      BET1L           0.480 8.39e- 9
#>  5 chr11      gtex_v8   ENSG000001779… BET1L      BET1L           0.462 6.36e- 9
#>  6 chr11      gtex_v8   ENSG000001779… BET1L      BET1L           0.553 8.89e-10
#>  7 chr11      gtex_v8   ENSG000001779… BET1L      BET1L           0.577 2.95e-12
#>  8 chr11      gtex_v8   ENSG000001779… BET1L      BET1L           0.547 6.13e-10
#>  9 chr11      gtex_v8   ENSG000001779… BET1L      BET1L           0.462 6.36e- 9
#> 10 chr11      gtex_v8   ENSG000001779… BET1L      BET1L           0.462 6.36e- 9
#> # ℹ 424 more rows
#> # ℹ 4 more variables: pos <int>, snpId <chr>, tissueSiteDetailId <chr>,
#> #   variantId <chr>
…
