Get sqtl Genes — get_sqtl_genes • gtexr
…
    Examples

get_sqtl_genes("Whole_Blood")
#> Warning: ! Total number of items (3013) exceeds maximum page size (250).
#> ℹ Try increasing `itemsPerPage`.
#> 
#> ── Paging info ─────────────────────────────────────────────────────────────────
#> • numberOfPages = 13
#> • page = 0
#> • maxItemsPerPage = 250
#> • totalNumberOfItems = 3013
#> # A tibble: 250 × 11
#>    nPhenotypes pValueThreshold phenotypeId        geneSymbol    pValue datasetId
#>          <int>           <dbl> <chr>              <chr>          <dbl> <chr>    
#>  1           9      0.0000145  chr1:15947:16607:… WASH7P     7.15e-  8 gtex_v8  
#>  2           6      0.00000634 chr1:1090428:1091… C1orf159   6.85e- 10 gtex_v8  
#>  3           7      0.00000908 chr1:1228946:1231… SDF4       1.16e-188 gtex_v8  
#>  4           6      0.00000861 chr1:1310688:1310… PUSL1      2.50e- 40 gtex_v8  
#>  5           3      0.00000954 chr1:1325102:1327… CPTP       9.60e-  7 gtex_v8  
#>  6           2      0.0000147  chr1:1487914:1489… ATAD3C     1.61e- 25 gtex_v8  
#>  7           5      0.00000740 chr1:1487914:1489… ATAD3B     1.61e- 25 gtex_v8  
#>  8           2      0.0000361  chr1:1545002:1547… SSU72      3.28e- 25 gtex_v8  
#>  9          19      0.00000176 chr1:1629311:1629… MIB2       1.97e- 12 gtex_v8  
#> 10           8      0.00000273 chr1:1641113:1641… CDK11B     3.08e- 56 gtex_v8  
#> # ℹ 240 more rows
#> # ℹ 5 more variables: empiricalPValue <dbl>, tissueSiteDetailId <chr>,
#> #   ontologyId <chr>, qValue <dbl>, gencodeId <chr>
…
