Get Median Transcript Expression — get_median_transcript_expression • gtexr
…
    Examples

# \dontrun{
get_median_transcript_expression(gencodeIds = "ENSG00000132693.12")
#> Warning: ! Total number of items (378) exceeds maximum page size (250).
#> ℹ Try increasing `itemsPerPage`.
#> 
#> ── Paging info ─────────────────────────────────────────────────────────────────
#> • numberOfPages = 2
#> • page = 0
#> • maxItemsPerPage = 250
#> • totalNumberOfItems = 378
#> # A tibble: 250 × 8
#>    median transcriptId      tissueSiteDetailId    ontologyId datasetId gencodeId
#>     <dbl> <chr>             <chr>                 <chr>      <chr>     <chr>    
#>  1 0.130  ENST00000255030.9 Adipose_Subcutaneous  UBERON:00… gtex_v8   ENSG0000…
#>  2 0      ENST00000368110.1 Adipose_Subcutaneous  UBERON:00… gtex_v8   ENSG0000…
#>  3 0      ENST00000368111.5 Adipose_Subcutaneous  UBERON:00… gtex_v8   ENSG0000…
#>  4 0      ENST00000368112.5 Adipose_Subcutaneous  UBERON:00… gtex_v8   ENSG0000…
#>  5 0      ENST00000437342.1 Adipose_Subcutaneous  UBERON:00… gtex_v8   ENSG0000…
#>  6 0.0100 ENST00000473196.1 Adipose_Subcutaneous  UBERON:00… gtex_v8   ENSG0000…
#>  7 0      ENST00000489317.1 Adipose_Subcutaneous  UBERON:00… gtex_v8   ENSG0000…
#>  8 0.0900 ENST00000255030.9 Adipose_Visceral_Ome… UBERON:00… gtex_v8   ENSG0000…
#>  9 0      ENST00000368110.1 Adipose_Visceral_Ome… UBERON:00… gtex_v8   ENSG0000…
#> 10 0      ENST00000368111.5 Adipose_Visceral_Ome… UBERON:00… gtex_v8   ENSG0000…
#> # ℹ 240 more rows
#> # ℹ 2 more variables: geneSymbol <chr>, unit <chr>
…
