Get Linkage Disequilibrium Data — get_linkage_disequilibrium_data • gtexr
…
    Examples

get_linkage_disequilibrium_data(gencodeIds = c("ENSG00000132693.12",
                                                  "ENSG00000203782.5"))
#> # A tibble: 250 × 3
#>    variantId_1            variantId_2            ld                
#>    <chr>                  <chr>                  <chr>             
#>  1 chr1_152442732_A_G_b38 chr1_152442997_C_T_b38 0.9967540000000001
#>  2 chr1_152442732_A_G_b38 chr1_152444300_T_C_b38 1.0               
#>  3 chr1_152442732_A_G_b38 chr1_152445670_T_C_b38 1.0               
#>  4 chr1_152442732_A_G_b38 chr1_152445737_A_C_b38 1.0               
#>  5 chr1_152442732_A_G_b38 chr1_152446586_C_T_b38 1.0               
#>  6 chr1_152442732_A_G_b38 chr1_152447965_A_C_b38 1.0               
#>  7 chr1_152442732_A_G_b38 chr1_152448570_T_C_b38 0.9967360000000001
#>  8 chr1_152442732_A_G_b38 chr1_152448978_G_T_b38 0.99351           
#>  9 chr1_152442732_A_G_b38 chr1_152449069_C_A_b38 0.99351           
#> 10 chr1_152442732_A_G_b38 chr1_152449124_T_A_b38 0.99351           
#> # ℹ 240 more rows
…
