Get Fine Mapping — get_fine_mapping • gtexr
…
    Examples

# \dontrun{
# search by gene
get_fine_mapping(gencodeIds = c("ENSG00000132693.12",
                               "ENSG00000203782.5"))
#> 
#> ── Paging info ─────────────────────────────────────────────────────────────────
#> • numberOfPages = 1
#> • page = 0
#> • maxItemsPerPage = 250
#> • totalNumberOfItems = 27
#> # A tibble: 27 × 9
#>    datasetId gencodeId          method     pip setId setSize tissueSiteDetailId
#>    <chr>     <chr>              <chr>    <dbl> <int>   <int> <chr>             
#>  1 gtex_v8   ENSG00000132693.12 DAP-G  0.0235      1       5 Thyroid           
#>  2 gtex_v8   ENSG00000132693.12 DAP-G  0.0221      1       5 Thyroid           
#>  3 gtex_v8   ENSG00000132693.12 DAP-G  0.0171      1       5 Thyroid           
#>  4 gtex_v8   ENSG00000132693.12 DAP-G  0.0252      1       5 Thyroid           
#>  5 gtex_v8   ENSG00000132693.12 DAP-G  0.892       1       5 Thyroid           
#>  6 gtex_v8   ENSG00000203782.5  DAP-G  0.0126      1      22 Whole_Blood       
#>  7 gtex_v8   ENSG00000203782.5  DAP-G  0.00690     1      22 Whole_Blood       
#>  8 gtex_v8   ENSG00000203782.5  DAP-G  0.0313      1      22 Whole_Blood       
#>  9 gtex_v8   ENSG00000203782.5  DAP-G  0.00852     1      22 Whole_Blood       
#> 10 gtex_v8   ENSG00000203782.5  DAP-G  0.0105      1      22 Whole_Blood       
#> # ℹ 17 more rows
#> # ℹ 2 more variables: ontologyId <chr>, variantId <chr>
…
