Get Multi Tissue Eqtls — get_multi_tissue_eqtls • gtexr
…
    Examples

# search by gene
get_multi_tissue_eqtls(gencodeId = c("ENSG00000132693.12",
                                     "ENSG00000203782.5"))
#> 
#> ── Paging info ─────────────────────────────────────────────────────────────────
#> • numberOfPages = 1
#> • page = 0
#> • maxItemsPerPage = 250
#> • totalNumberOfItems = 132
#> # A tibble: 6,468 × 5
#>    gencodeId         datasetId   metaP variantId              tissues         
#>    <chr>             <chr>       <dbl> <chr>                  <named list>    
#>  1 ENSG00000203782.5 gtex_v8   0.00177 chr1_152346526_G_T_b38 <named list [4]>
#>  2 ENSG00000203782.5 gtex_v8   0.00177 chr1_152346526_G_T_b38 <named list [4]>
#>  3 ENSG00000203782.5 gtex_v8   0.00177 chr1_152346526_G_T_b38 <named list [4]>
#>  4 ENSG00000203782.5 gtex_v8   0.00177 chr1_152346526_G_T_b38 <named list [4]>
#>  5 ENSG00000203782.5 gtex_v8   0.00177 chr1_152346526_G_T_b38 <named list [4]>
#>  6 ENSG00000203782.5 gtex_v8   0.00177 chr1_152346526_G_T_b38 <named list [4]>
#>  7 ENSG00000203782.5 gtex_v8   0.00177 chr1_152346526_G_T_b38 <named list [4]>
#>  8 ENSG00000203782.5 gtex_v8   0.00177 chr1_152346526_G_T_b38 <named list [4]>
#>  9 ENSG00000203782.5 gtex_v8   0.00177 chr1_152346526_G_T_b38 <named list [4]>
#> 10 ENSG00000203782.5 gtex_v8   0.00177 chr1_152346526_G_T_b38 <named list [4]>
#> # ℹ 6,458 more rows
…
