Get Top Expressed Genes — get_top_expressed_genes • gtexr
…
    Examples

# \dontrun{
get_top_expressed_genes(tissueSiteDetailId = "Artery_Aorta")
#> Warning: ! Total number of items (56163) exceeds maximum page size (250).
#> ℹ Try increasing `itemsPerPage`.
#> 
#> ── Paging info ─────────────────────────────────────────────────────────────────
#> • numberOfPages = 225
#> • page = 0
#> • maxItemsPerPage = 250
#> • totalNumberOfItems = 56163
#> # A tibble: 250 × 7
#>    tissueSiteDetailId ontologyId     datasetId gencodeId geneSymbol median unit 
#>    <chr>              <chr>          <chr>     <chr>     <chr>       <dbl> <chr>
#>  1 Artery_Aorta       UBERON:0001496 gtex_v8   ENSG0000… MGP        11936. TPM  
#>  2 Artery_Aorta       UBERON:0001496 gtex_v8   ENSG0000… FTL         9196. TPM  
#>  3 Artery_Aorta       UBERON:0001496 gtex_v8   ENSG0000… ACTB        9154. TPM  
#>  4 Artery_Aorta       UBERON:0001496 gtex_v8   ENSG0000… BGN         8167. TPM  
#>  5 Artery_Aorta       UBERON:0001496 gtex_v8   ENSG0000… TAGLN       6099. TPM  
#>  6 Artery_Aorta       UBERON:0001496 gtex_v8   ENSG0000… ACTA2       5736. TPM  
#>  7 Artery_Aorta       UBERON:0001496 gtex_v8   ENSG0000… IGFBP7      5639. TPM  
#>  8 Artery_Aorta       UBERON:0001496 gtex_v8   ENSG0000… MYL9        4275. TPM  
#>  9 Artery_Aorta       UBERON:0001496 gtex_v8   ENSG0000… HSPB1       3780. TPM  
#> 10 Artery_Aorta       UBERON:0001496 gtex_v8   ENSG0000… FLNA        3732. TPM  
#> # ℹ 240 more rows
…
